{"verses":[{"id":8,"verse_number":1,"verse_key":"2:1","hizb_number":1,"rub_el_hizb_number":1,"ruku_number":2,"manzil_number":1,"sajdah_number":null,"text_uthmani":" الٓمٓ","page_number":2,"page_number":2,"juz_number":1},{"id":9,"verse_number":2,"verse_key":"2:2","hizb_number":1,"rub_el_hizb_number":1,"ruku_number":2,"manzil_number":1,"sajdah_number":null,"text_uthmani":"ذَٰلِكَ ٱلْكِتَـٰبُ لَا رَيْبَ ۛ فِيهِ ۛ هُدًى لِّلْمُتَّقِينَ","page_number":2,"page_number":2,"juz_number":1},{"id":10,"verse_number":3,"verse_key":"2:3","hizb_number":1,"rub_el_hizb_number":1,"ruku_number":2,"manzil_number":1,"sajdah_number":null,"text_uthmani":"ٱلَّذِينَ يُؤْمِنُونَ بِٱلْغَيْبِ وَيُقِيمُونَ ٱلصَّلَوٰةَ وَمِمَّا رَزَقْنَـٰهُمْ يُنفِقُونَ","page_number":2,"page_number":2,"juz_number":1}],"pagination":{"per_page":3,"current_page":1,"next_page":2,"total_pages":96,"total_records":286}}


